NYC Restaurant Inspection Data
…
popular_manhattan = nyc_inspections %>% 
  rename(id = camis, restaurant_name = dba) %>% 
  select(id, restaurant_name, boro, cuisine_description, latitude, longitude) %>% 
  filter(
    boro == "Manhattan") %>% 
  distinct()

popular_manhattan %>% 
  select(id, cuisine_description) %>% 
  group_by(cuisine_description) %>% 
  summarise(cuisine_count = n()) %>% 
  arrange(-cuisine_count)

## # A tibble: 80 x 2
##    cuisine_description cuisine_count
##    <chr>                       <int>
##  1 American                     2875
##  2 Café/Coffee/Tea               978
##  3 Other                         731
##  4 Italian                       568
##  5 Chinese                       509
##  6 Japanese                      470
##  7 Pizza                         355
##  8 Mexican                       326
##  9 French                        243
## 10 Bakery                        241
## # … with 70 more rows
…
